%YAML 1.1
%TAG !u! tag:unity3d.com,2011:
--- !u!114 &11400000
MonoBehaviour:
  m_ObjectHideFlags: 0
  m_CorrespondingSourceObject: {fileID: 0}
  m_PrefabInstance: {fileID: 0}
  m_PrefabAsset: {fileID: 0}
  m_GameObject: {fileID: 0}
  m_Enabled: 1
  m_EditorHideFlags: 0
  m_Script: {fileID: -1320632787, guid: 1eea3bf15bb7ddb4582c462beee0ad13, type: 3}
  m_Name: ProjectSettings
  m_EditorClassIdentifier: 
  _data:
    _json: '{"dictionary":{"favoriteUnitOptions":{"$content":["UnityEngine.Transform.Rotate(UnityEngine.Vector3)@any"],"$type":"System.Collections.Generic.HashSet`1[[System.String,
      mscorlib, Version=4.0.0.0, Culture=neutral, PublicKeyToken=b77a5c561934e089]]"},"projectSetupCompleted":{"$content":true,"$type":"System.Boolean"},"savedVersion":{"major":1,"minor":4,"patch":13,"label":null,"increment":0,"$type":"Ludiq.SemanticVersion"}}}'
    _objectReferences: []
